^C:\USERS\MAGSHIMIM\SOURCE\REPOS\PROJECT7\PROJECT7\CIRCLE.CPP|C:\USERS\MAGSHIMIM\SOURCE\REPOS\PROJECT7\PROJECT7\MAIN.CPP|C:\USERS\MAGSHIMIM\SOURCE\REPOS\PROJECT7\PROJECT7\PARALLELOGRAM.CPP|C:\USERS\MAGSHIMIM\SOURCE\REPOS\PROJECT7\PROJECT7\QUADRILATERAL.CPP|C:\USERS\MAGSHIMIM\SOURCE\REPOS\PROJECT7\PROJECT7\RECTANGLE.CPP|C:\USERS\MAGSHIMIM\SOURCE\REPOS\PROJECT7\PROJECT7\SHAPE.CPP
C:\USERS\MAGSHIMIM\SOURCE\REPOS\PROJECT7\PROJECT7\DEBUG\VC141.PDB
C:\USERS\MAGSHIMIM\SOURCE\REPOS\PROJECT7\PROJECT7\DEBUG\VC141.IDB
C:\USERS\MAGSHIMIM\SOURCE\REPOS\PROJECT7\PROJECT7\DEBUG\SHAPE.OBJ
C:\USERS\MAGSHIMIM\SOURCE\REPOS\PROJECT7\PROJECT7\DEBUG\RECTANGLE.OBJ
C:\USERS\MAGSHIMIM\SOURCE\REPOS\PROJECT7\PROJECT7\DEBUG\QUADRILATERAL.OBJ
C:\USERS\MAGSHIMIM\SOURCE\REPOS\PROJECT7\PROJECT7\DEBUG\PARALLELOGRAM.OBJ
C:\USERS\MAGSHIMIM\SOURCE\REPOS\PROJECT7\PROJECT7\DEBUG\MAIN.OBJ
C:\USERS\MAGSHIMIM\SOURCE\REPOS\PROJECT7\PROJECT7\DEBUG\CIRCLE.OBJ
^C:\USERS\MAGSHIMIM\SOURCE\REPOS\PROJECT7\PROJECT7\CIRCLE.CPP|C:\USERS\MAGSHIMIM\SOURCE\REPOS\PROJECT7\PROJECT7\SHAPE.CPP
C:\USERS\MAGSHIMIM\SOURCE\REPOS\PROJECT7\PROJECT7\DEBUG\VC141.PDB
C:\USERS\MAGSHIMIM\SOURCE\REPOS\PROJECT7\PROJECT7\DEBUG\VC141.IDB
C:\USERS\MAGSHIMIM\SOURCE\REPOS\PROJECT7\PROJECT7\DEBUG\SHAPE.OBJ
^C:\USERS\MAGSHIMIM\SOURCE\REPOS\PROJECT7\PROJECT7\CIRCLE.CPP|C:\USERS\MAGSHIMIM\SOURCE\REPOS\PROJECT7\PROJECT7\MAIN.CPP|C:\USERS\MAGSHIMIM\SOURCE\REPOS\PROJECT7\PROJECT7\PARALLELOGRAM.CPP|C:\USERS\MAGSHIMIM\SOURCE\REPOS\PROJECT7\PROJECT7\QUADRILATERAL.CPP|C:\USERS\MAGSHIMIM\SOURCE\REPOS\PROJECT7\PROJECT7\RECTANGLE.CPP
C:\USERS\MAGSHIMIM\SOURCE\REPOS\PROJECT7\PROJECT7\DEBUG\VC141.PDB
C:\USERS\MAGSHIMIM\SOURCE\REPOS\PROJECT7\PROJECT7\DEBUG\VC141.IDB
C:\USERS\MAGSHIMIM\SOURCE\REPOS\PROJECT7\PROJECT7\DEBUG\RECTANGLE.OBJ
C:\USERS\MAGSHIMIM\SOURCE\REPOS\PROJECT7\PROJECT7\DEBUG\QUADRILATERAL.OBJ
C:\USERS\MAGSHIMIM\SOURCE\REPOS\PROJECT7\PROJECT7\DEBUG\PARALLELOGRAM.OBJ
C:\USERS\MAGSHIMIM\SOURCE\REPOS\PROJECT7\PROJECT7\DEBUG\MAIN.OBJ
C:\USERS\MAGSHIMIM\SOURCE\REPOS\PROJECT7\PROJECT7\DEBUG\CIRCLE.OBJ
^C:\USERS\MAGSHIMIM\SOURCE\REPOS\PROJECT7\PROJECT7\CIRCLE.CPP|C:\USERS\MAGSHIMIM\SOURCE\REPOS\PROJECT7\PROJECT7\MAIN.CPP
C:\USERS\MAGSHIMIM\SOURCE\REPOS\PROJECT7\PROJECT7\DEBUG\VC141.PDB
C:\USERS\MAGSHIMIM\SOURCE\REPOS\PROJECT7\PROJECT7\DEBUG\VC141.IDB
C:\USERS\MAGSHIMIM\SOURCE\REPOS\PROJECT7\PROJECT7\DEBUG\MAIN.OBJ
C:\USERS\MAGSHIMIM\SOURCE\REPOS\PROJECT7\PROJECT7\DEBUG\CIRCLE.OBJ
^C:\USERS\MAGSHIMIM\SOURCE\REPOS\PROJECT7\PROJECT7\PARALLELOGRAM.CPP
C:\USERS\MAGSHIMIM\SOURCE\REPOS\PROJECT7\PROJECT7\DEBUG\VC141.PDB
C:\USERS\MAGSHIMIM\SOURCE\REPOS\PROJECT7\PROJECT7\DEBUG\VC141.IDB
C:\USERS\MAGSHIMIM\SOURCE\REPOS\PROJECT7\PROJECT7\DEBUG\PARALLELOGRAM.OBJ
^C:\USERS\MAGSHIMIM\SOURCE\REPOS\PROJECT7\PROJECT7\CIRCLE.CPP|C:\USERS\MAGSHIMIM\SOURCE\REPOS\PROJECT7\PROJECT7\QUADRILATERAL.CPP|C:\USERS\MAGSHIMIM\SOURCE\REPOS\PROJECT7\PROJECT7\RECTANGLE.CPP|C:\USERS\MAGSHIMIM\SOURCE\REPOS\PROJECT7\PROJECT7\SHAPE.CPP
C:\USERS\MAGSHIMIM\SOURCE\REPOS\PROJECT7\PROJECT7\DEBUG\VC141.PDB
C:\USERS\MAGSHIMIM\SOURCE\REPOS\PROJECT7\PROJECT7\DEBUG\VC141.IDB
C:\USERS\MAGSHIMIM\SOURCE\REPOS\PROJECT7\PROJECT7\DEBUG\SHAPE.OBJ
C:\USERS\MAGSHIMIM\SOURCE\REPOS\PROJECT7\PROJECT7\DEBUG\RECTANGLE.OBJ
C:\USERS\MAGSHIMIM\SOURCE\REPOS\PROJECT7\PROJECT7\DEBUG\QUADRILATERAL.OBJ
C:\USERS\MAGSHIMIM\SOURCE\REPOS\PROJECT7\PROJECT7\DEBUG\CIRCLE.OBJ
^C:\USERS\MAGSHIMIM\SOURCE\REPOS\PROJECT7\PROJECT7\CIRCLE.CPP
C:\USERS\MAGSHIMIM\SOURCE\REPOS\PROJECT7\PROJECT7\DEBUG\VC141.PDB
^C:\USERS\MAGSHIMIM\SOURCE\REPOS\PROJECT7\PROJECT7\QUADRILATERAL.CPP
C:\USERS\MAGSHIMIM\SOURCE\REPOS\PROJECT7\PROJECT7\DEBUG\VC141.PDB
^C:\USERS\MAGSHIMIM\SOURCE\REPOS\PROJECT7\PROJECT7\RECTANGLE.CPP
C:\USERS\MAGSHIMIM\SOURCE\REPOS\PROJECT7\PROJECT7\DEBUG\VC141.PDB
^C:\USERS\MAGSHIMIM\SOURCE\REPOS\PROJECT7\PROJECT7\SHAPE.CPP
C:\USERS\MAGSHIMIM\SOURCE\REPOS\PROJECT7\PROJECT7\DEBUG\VC141.PDB
^C:\USERS\MAGSHIMIM\SOURCE\REPOS\PROJECT7\PROJECT7\HEXAGON.CPP|C:\USERS\MAGSHIMIM\SOURCE\REPOS\PROJECT7\PROJECT7\MAIN.CPP|C:\USERS\MAGSHIMIM\SOURCE\REPOS\PROJECT7\PROJECT7\PENTAGON.CPP
C:\USERS\MAGSHIMIM\SOURCE\REPOS\PROJECT7\PROJECT7\DEBUG\VC141.PDB
C:\USERS\MAGSHIMIM\SOURCE\REPOS\PROJECT7\PROJECT7\DEBUG\VC141.IDB
C:\USERS\MAGSHIMIM\SOURCE\REPOS\PROJECT7\PROJECT7\DEBUG\MAIN.OBJ
C:\USERS\MAGSHIMIM\SOURCE\REPOS\PROJECT7\PROJECT7\DEBUG\PENTAGON.OBJ
C:\USERS\MAGSHIMIM\SOURCE\REPOS\PROJECT7\PROJECT7\DEBUG\HEXAGON.OBJ
^C:\USERS\MAGSHIMIM\SOURCE\REPOS\PROJECT7\PROJECT7\MAIN.CPP
C:\USERS\MAGSHIMIM\SOURCE\REPOS\PROJECT7\PROJECT7\DEBUG\VC141.PDB
^C:\USERS\MAGSHIMIM\SOURCE\REPOS\PROJECT7\PROJECT7\HEXAGON.CPP|C:\USERS\MAGSHIMIM\SOURCE\REPOS\PROJECT7\PROJECT7\PENTAGON.CPP
C:\USERS\MAGSHIMIM\SOURCE\REPOS\PROJECT7\PROJECT7\DEBUG\VC141.PDB
C:\USERS\MAGSHIMIM\SOURCE\REPOS\PROJECT7\PROJECT7\DEBUG\VC141.IDB
C:\USERS\MAGSHIMIM\SOURCE\REPOS\PROJECT7\PROJECT7\DEBUG\PENTAGON.OBJ
C:\USERS\MAGSHIMIM\SOURCE\REPOS\PROJECT7\PROJECT7\DEBUG\HEXAGON.OBJ
^C:\USERS\MAGSHIMIM\SOURCE\REPOS\PROJECT7\PROJECT7\HEXAGON.CPP
C:\USERS\MAGSHIMIM\SOURCE\REPOS\PROJECT7\PROJECT7\DEBUG\VC141.PDB
^C:\USERS\MAGSHIMIM\SOURCE\REPOS\PROJECT7\PROJECT7\PENTAGON.CPP
C:\USERS\MAGSHIMIM\SOURCE\REPOS\PROJECT7\PROJECT7\DEBUG\VC141.PDB
