^C:\USERS\MAGSHIMIM\DOCUMENTS\MAGSHIMIM\GIT\HOMEWORK-06\HW06MAORGELMAN\1\PROJECT6\X64\DEBUG\BASIC_CALC.OBJ
C:\USERS\MAGSHIMIM\DOCUMENTS\MAGSHIMIM\GIT\HOMEWORK-06\HW06MAORGELMAN\1\X64\DEBUG\PROJECT6.ILK
C:\USERS\MAGSHIMIM\DOCUMENTS\MAGSHIMIM\GIT\HOMEWORK-06\HW06MAORGELMAN\1\X64\DEBUG\PROJECT6.EXE
C:\USERS\MAGSHIMIM\DOCUMENTS\MAGSHIMIM\GIT\HOMEWORK-06\HW06MAORGELMAN\1\X64\DEBUG\PROJECT6.PDB
^C:\USERS\MAGSHIMIM\DOCUMENTS\MAGSHIMIM\GIT\HOMEWORK-06\HW06MAORGELMAN\1\SLN\PROJECT6\X64\DEBUG\BASIC_CALC.OBJ
C:\USERS\MAGSHIMIM\DOCUMENTS\MAGSHIMIM\GIT\HOMEWORK-06\HW06MAORGELMAN\1\SLN\X64\DEBUG\PROJECT6.ILK
C:\USERS\MAGSHIMIM\DOCUMENTS\MAGSHIMIM\GIT\HOMEWORK-06\HW06MAORGELMAN\1\SLN\X64\DEBUG\PROJECT6.EXE
C:\USERS\MAGSHIMIM\DOCUMENTS\MAGSHIMIM\GIT\HOMEWORK-06\HW06MAORGELMAN\1\SLN\X64\DEBUG\PROJECT6.PDB
